<svg version="1" xmlns="http://www.w3.org/2000/svg" viewBox="0 0 48 48" enable-background="new 0 0 48 48">
    <polygon fill="#546E7A" points="38,33 38,5 34,5 34,33 28,33 36,43 44,33"/>
    <g fill="#0D8BF2">
        <path d="M16.8,17.2h-5.3l-1.1,3H6.9L12.6,5h2.9l5.7,15.2h-3.2L16.8,17.2z M12.2,14.5H16l-1.9-5.7L12.2,14.5z"/>
        <path d="M12.4,40.5H20V43H8.4v-1.9L16,30.3H8.4v-2.5h11.4v1.7L12.4,40.5z"/>
    </g>
</svg>
